Homework 4
…
# token and no stop words
spotify_sample %>% 
  filter(!is.na(Review)) %>% 
  unnest_tokens(word, Review) %>% 
  anti_join(stop_words) %>%
  count(word, sort = T)

# A tibble: 8,970 × 2
   word        n
   <chr>   <int>
 1 app      5463
 2 music    3983
 3 spotify  2840
 4 songs    2807
 5 song     2265
 6 play     1825
 7 love     1543
 8 listen   1359
 9 premium  1328
10 ads      1263
# ℹ 8,960 more rows
…
