Homework 2
…
    country = con$location$country,
    is_daytime = con$current$is_day == 1,
    temperature_f = con$current$temp_f,
    humidity = con$current$humidity,
    weather_desc = con$current$condition$text,
    wind_speed_mph = con$current$wind_mph,
    precipitation_mm = con$current$precip_mm,
    air_quality_us_epa = con$current$air_quality$`us-epa-index`
  )
  complete_data[[i]] <- weather_data
}
complete_df <- bind_rows(complete_data)
complete_df

# A tibble: 50 × 9
   city    country is_daytime temperature_f humidity weather_desc wind_speed_mph
   <chr>   <chr>   <lgl>              <dbl>    <int> <chr>                 <dbl>
 1 Shangh… China   TRUE                59.2       72 Partly clou…            4.7
 2 Chongq… China   TRUE                64.4       83 Sunny                   2.2
 3 Palemb… Indone… TRUE                77.5       89 Partly clou…            2.2
 4 Berlin  Germany FALSE               49.3       85 Clear                   3.8
 5 Seoul   South … TRUE                51         54 Sunny                   2.2
 6 Tangsh… China   TRUE                51.1       60 Sunny                   3.6
 7 Cairo   Egypt   FALSE               68.5       56 Clear                  12.8
 8 Warsaw  Poland  FALSE               47.6       78 Clear                   4.7
 9 Zunyi   China   TRUE                54.6       87 Sunny                   2.2
10 Saitama Japan   TRUE                73.6       73 Partly clou…            8.5
# ℹ 40 more rows
# ℹ 2 more variables: precipitation_mm <dbl>, air_quality_us_epa <int>
…
